module github.com/xplorfin/fasthttp2curl

go 1.14

require (
	github.com/brianvoe/gofakeit/v5 v5.11.2
	github.com/go-http-utils/headers v0.0.0-20181008091004-fed159eddc2a
	github.com/moul/http2curl v1.0.0
	github.com/smartystreets/goconvey v1.6.4 // indirect
	github.com/stretchr/testify v1.7.0 // indirect
	github.com/valyala/fasthttp v1.19.0
)
